[gd_scene load_steps=3 format=2]

[ext_resource path="res://scenes/UI/TranscriptsCreateAnalyseButton.gd" type="Script" id=1]
[ext_resource path="res://scenes/UI/TranscriptsCreateAnalyseFileDialog.gd" type="Script" id=2]

[node name="UITranscripts" type="Control"]
anchor_right = 1.0
anchor_bottom = 1.0
margin_right = -1763.0
size_flags_horizontal = 3
size_flags_vertical = 3

[node name="VBoxContainer" type="VBoxContainer" parent="."]
anchor_right = 1.0
anchor_bottom = 1.0
size_flags_horizontal = 3
size_flags_vertical = 3

[node name="HSeparator2" type="HSeparator" parent="VBoxContainer"]
margin_right = 157.0
margin_bottom = 4.0

[node name="TranscriptTitleLabel" type="Label" parent="VBoxContainer"]
margin_top = 8.0
margin_right = 157.0
margin_bottom = 22.0
text = "Transcripts"
align = 1

[node name="HSeparator" type="HSeparator" parent="VBoxContainer"]
margin_top = 26.0
margin_right = 157.0
margin_bottom = 30.0

[node name="TranscriptsCreateAnalyseButton" type="Button" parent="VBoxContainer"]
margin_top = 34.0
margin_right = 157.0
margin_bottom = 54.0
text = "Create Analyse..."
script = ExtResource( 1 )

[node name="TranscriptsCreateAnalyseFileDialog" type="FileDialog" parent="."]
margin_left = 273.0
margin_top = 164.0
margin_right = 789.0
margin_bottom = 453.0
window_title = "Ouvrir un fichier"
resizable = true
mode = 0
script = ExtResource( 2 )
